^C:\INFO 1\VERWALTUNG_CHRISTOPH_EBLER_51411\VERWALTUNG_CHRISTOPH_EBLER_51411\DEBUG\ERROR_MESSAGES.OBJ|C:\INFO 1\VERWALTUNG_CHRISTOPH_EBLER_51411\VERWALTUNG_CHRISTOPH_EBLER_51411\DEBUG\FILEIO.OBJ|C:\INFO 1\VERWALTUNG_CHRISTOPH_EBLER_51411\VERWALTUNG_CHRISTOPH_EBLER_51411\DEBUG\HAUBTPROGRAMM.OBJ|C:\INFO 1\VERWALTUNG_CHRISTOPH_EBLER_51411\VERWALTUNG_CHRISTOPH_EBLER_51411\DEBUG\KEYFUNC.OBJ|C:\INFO 1\VERWALTUNG_CHRISTOPH_EBLER_51411\VERWALTUNG_CHRISTOPH_EBLER_51411\DEBUG\MENUEFUNC.OBJ|C:\INFO 1\VERWALTUNG_CHRISTOPH_EBLER_51411\VERWALTUNG_CHRISTOPH_EBLER_51411\DEBUG\PARSER.OBJ|C:\INFO 1\VERWALTUNG_CHRISTOPH_EBLER_51411\VERWALTUNG_CHRISTOPH_EBLER_51411\DEBUG\SUCHFUNC.OBJ
/ERRORREPORT:PROMPT /OUT:"C:\info 1\verwaltung_Christoph_Ebler_51411\Debug\verwaltung_Christoph_Ebler_51411.exe" /NOLOGO kernel32.lib user32.lib gdi32.lib winspool.lib comdlg32.lib advapi32.lib shell32.lib ole32.lib oleaut32.lib uuid.lib odbc32.lib odbccp32.lib /MANIFEST /ManifestFile:"Debug\verwaltung_Christoph_Ebler_51411.exe.intermediate.manifest" /MANIFESTUAC:"level='asInvoker' uiAccess='false'" /DEBUG /PDB:"C:\info 1\verwaltung_Christoph_Ebler_51411\Debug\verwaltung_Christoph_Ebler_51411.pdb" /TLBID:1 /DYNAMICBASE /NXCOMPAT /IMPLIB:"C:\info 1\verwaltung_Christoph_Ebler_51411\Debug\verwaltung_Christoph_Ebler_51411.lib" /MACHINE:X86 Debug\error_Messages.obj
Debug\fileIO.obj
Debug\haubtprogramm.obj
Debug\keyfunc.obj
Debug\menuefunc.obj
Debug\parser.obj
Debug\suchfunc.obj
^E:\INFO 1\VERWALTUNG_CHRISTOPH_EBLER_51411 14.09.2015\VERWALTUNG_CHRISTOPH_EBLER_51411\VERWALTUNG_CHRISTOPH_EBLER_51411\DEBUG\ERROR_MESSAGES.OBJ|E:\INFO 1\VERWALTUNG_CHRISTOPH_EBLER_51411 14.09.2015\VERWALTUNG_CHRISTOPH_EBLER_51411\VERWALTUNG_CHRISTOPH_EBLER_51411\DEBUG\FILEIO.OBJ|E:\INFO 1\VERWALTUNG_CHRISTOPH_EBLER_51411 14.09.2015\VERWALTUNG_CHRISTOPH_EBLER_51411\VERWALTUNG_CHRISTOPH_EBLER_51411\DEBUG\HAUBTPROGRAMM.OBJ|E:\INFO 1\VERWALTUNG_CHRISTOPH_EBLER_51411 14.09.2015\VERWALTUNG_CHRISTOPH_EBLER_51411\VERWALTUNG_CHRISTOPH_EBLER_51411\DEBUG\KEYFUNC.OBJ|E:\INFO 1\VERWALTUNG_CHRISTOPH_EBLER_51411 14.09.2015\VERWALTUNG_CHRISTOPH_EBLER_51411\VERWALTUNG_CHRISTOPH_EBLER_51411\DEBUG\MENUEFUNC.OBJ|E:\INFO 1\VERWALTUNG_CHRISTOPH_EBLER_51411 14.09.2015\VERWALTUNG_CHRISTOPH_EBLER_51411\VERWALTUNG_CHRISTOPH_EBLER_51411\DEBUG\PARSER.OBJ|E:\INFO 1\VERWALTUNG_CHRISTOPH_EBLER_51411 14.09.2015\VERWALTUNG_CHRISTOPH_EBLER_51411\VERWALTUNG_CHRISTOPH_EBLER_51411\DEBUG\SUCHFUNC.OBJ
/ERRORREPORT:PROMPT /OUT:"E:\info 1\verwaltung_Christoph_Ebler_51411 14.09.2015\verwaltung_Christoph_Ebler_51411\Debug\verwaltung_Christoph_Ebler_51411.exe" /NOLOGO kernel32.lib user32.lib gdi32.lib winspool.lib comdlg32.lib advapi32.lib shell32.lib ole32.lib oleaut32.lib uuid.lib odbc32.lib odbccp32.lib /MANIFEST /ManifestFile:"Debug\verwaltung_Christoph_Ebler_51411.exe.intermediate.manifest" /MANIFESTUAC:"level='asInvoker' uiAccess='false'" /DEBUG /PDB:"E:\info 1\verwaltung_Christoph_Ebler_51411 14.09.2015\verwaltung_Christoph_Ebler_51411\Debug\verwaltung_Christoph_Ebler_51411.pdb" /TLBID:1 /DYNAMICBASE /NXCOMPAT /IMPLIB:"E:\info 1\verwaltung_Christoph_Ebler_51411 14.09.2015\verwaltung_Christoph_Ebler_51411\Debug\verwaltung_Christoph_Ebler_51411.lib" /MACHINE:X86 Debug\error_Messages.obj
Debug\fileIO.obj
Debug\haubtprogramm.obj
Debug\keyfunc.obj
Debug\menuefunc.obj
Debug\parser.obj
Debug\suchfunc.obj
^E:\INFO 1\VERWALTUNG_CHRISTOPH_EBLER_51411\VERWALTUNG_CHRISTOPH_EBLER_51411\VERWALTUNG_CHRISTOPH_EBLER_51411\DEBUG\ERROR_MESSAGES.OBJ|E:\INFO 1\VERWALTUNG_CHRISTOPH_EBLER_51411\VERWALTUNG_CHRISTOPH_EBLER_51411\VERWALTUNG_CHRISTOPH_EBLER_51411\DEBUG\FILEIO.OBJ|E:\INFO 1\VERWALTUNG_CHRISTOPH_EBLER_51411\VERWALTUNG_CHRISTOPH_EBLER_51411\VERWALTUNG_CHRISTOPH_EBLER_51411\DEBUG\HAUBTPROGRAMM.OBJ|E:\INFO 1\VERWALTUNG_CHRISTOPH_EBLER_51411\VERWALTUNG_CHRISTOPH_EBLER_51411\VERWALTUNG_CHRISTOPH_EBLER_51411\DEBUG\KEYFUNC.OBJ|E:\INFO 1\VERWALTUNG_CHRISTOPH_EBLER_51411\VERWALTUNG_CHRISTOPH_EBLER_51411\VERWALTUNG_CHRISTOPH_EBLER_51411\DEBUG\MENUEFUNC.OBJ|E:\INFO 1\VERWALTUNG_CHRISTOPH_EBLER_51411\VERWALTUNG_CHRISTOPH_EBLER_51411\VERWALTUNG_CHRISTOPH_EBLER_51411\DEBUG\PARSER.OBJ|E:\INFO 1\VERWALTUNG_CHRISTOPH_EBLER_51411\VERWALTUNG_CHRISTOPH_EBLER_51411\VERWALTUNG_CHRISTOPH_EBLER_51411\DEBUG\SUCHFUNC.OBJ
/ERRORREPORT:PROMPT /OUT:"E:\info 1\verwaltung_Christoph_Ebler_51411\verwaltung_Christoph_Ebler_51411\Debug\verwaltung_Christoph_Ebler_51411.exe" /NOLOGO kernel32.lib user32.lib gdi32.lib winspool.lib comdlg32.lib advapi32.lib shell32.lib ole32.lib oleaut32.lib uuid.lib odbc32.lib odbccp32.lib /MANIFEST /ManifestFile:"Debug\verwaltung_Christoph_Ebler_51411.exe.intermediate.manifest" /MANIFESTUAC:"level='asInvoker' uiAccess='false'" /DEBUG /PDB:"E:\info 1\verwaltung_Christoph_Ebler_51411\verwaltung_Christoph_Ebler_51411\Debug\verwaltung_Christoph_Ebler_51411.pdb" /TLBID:1 /DYNAMICBASE /NXCOMPAT /IMPLIB:"E:\info 1\verwaltung_Christoph_Ebler_51411\verwaltung_Christoph_Ebler_51411\Debug\verwaltung_Christoph_Ebler_51411.lib" /MACHINE:X86 Debug\error_Messages.obj
Debug\fileIO.obj
Debug\haubtprogramm.obj
Debug\keyfunc.obj
Debug\menuefunc.obj
Debug\parser.obj
Debug\suchfunc.obj
^E:\INFO 1\VERWALTUNG_CHRISTOPH_EBLER_51411\VERWALTUNG_CHRISTOPH_EBLER_51411\DEBUG\ERROR_MESSAGES.OBJ|E:\INFO 1\VERWALTUNG_CHRISTOPH_EBLER_51411\VERWALTUNG_CHRISTOPH_EBLER_51411\DEBUG\FILEIO.OBJ|E:\INFO 1\VERWALTUNG_CHRISTOPH_EBLER_51411\VERWALTUNG_CHRISTOPH_EBLER_51411\DEBUG\HAUPTPROGRAMM.OBJ|E:\INFO 1\VERWALTUNG_CHRISTOPH_EBLER_51411\VERWALTUNG_CHRISTOPH_EBLER_51411\DEBUG\KEYFUNC.OBJ|E:\INFO 1\VERWALTUNG_CHRISTOPH_EBLER_51411\VERWALTUNG_CHRISTOPH_EBLER_51411\DEBUG\MENUEFUNC.OBJ|E:\INFO 1\VERWALTUNG_CHRISTOPH_EBLER_51411\VERWALTUNG_CHRISTOPH_EBLER_51411\DEBUG\PARSER.OBJ
/ERRORREPORT:PROMPT /OUT:"E:\info 1\verwaltung_Christoph_Ebler_51411\Debug\verwaltung_Christoph_Ebler_51411.exe" /NOLOGO kernel32.lib user32.lib gdi32.lib winspool.lib comdlg32.lib advapi32.lib shell32.lib ole32.lib oleaut32.lib uuid.lib odbc32.lib odbccp32.lib /MANIFEST /ManifestFile:"Debug\verwaltung_Christoph_Ebler_51411.exe.intermediate.manifest" /MANIFESTUAC:"level='asInvoker' uiAccess='false'" /DEBUG /PDB:"E:\info 1\verwaltung_Christoph_Ebler_51411\Debug\verwaltung_Christoph_Ebler_51411.pdb" /TLBID:1 /DYNAMICBASE /NXCOMPAT /IMPLIB:"E:\info 1\verwaltung_Christoph_Ebler_51411\Debug\verwaltung_Christoph_Ebler_51411.lib" /MACHINE:X86 Debug\error_Messages.obj
Debug\fileIO.obj
Debug\hauptprogramm.obj
Debug\keyfunc.obj
Debug\menuefunc.obj
Debug\parser.obj
^C:\USERS\CHRISTOPH\DOWNLOADS\VERWALTUNG_CHRISTOPH_EBLER_51411 18.09.2015\VERWALTUNG_CHRISTOPH_EBLER_51411\VERWALTUNG_CHRISTOPH_EBLER_51411\DEBUG\ERROR_MESSAGES.OBJ|C:\USERS\CHRISTOPH\DOWNLOADS\VERWALTUNG_CHRISTOPH_EBLER_51411 18.09.2015\VERWALTUNG_CHRISTOPH_EBLER_51411\VERWALTUNG_CHRISTOPH_EBLER_51411\DEBUG\FILEIO.OBJ|C:\USERS\CHRISTOPH\DOWNLOADS\VERWALTUNG_CHRISTOPH_EBLER_51411 18.09.2015\VERWALTUNG_CHRISTOPH_EBLER_51411\VERWALTUNG_CHRISTOPH_EBLER_51411\DEBUG\HAUPTPROGRAMM.OBJ|C:\USERS\CHRISTOPH\DOWNLOADS\VERWALTUNG_CHRISTOPH_EBLER_51411 18.09.2015\VERWALTUNG_CHRISTOPH_EBLER_51411\VERWALTUNG_CHRISTOPH_EBLER_51411\DEBUG\KEYFUNC.OBJ|C:\USERS\CHRISTOPH\DOWNLOADS\VERWALTUNG_CHRISTOPH_EBLER_51411 18.09.2015\VERWALTUNG_CHRISTOPH_EBLER_51411\VERWALTUNG_CHRISTOPH_EBLER_51411\DEBUG\MENUEFUNC.OBJ|C:\USERS\CHRISTOPH\DOWNLOADS\VERWALTUNG_CHRISTOPH_EBLER_51411 18.09.2015\VERWALTUNG_CHRISTOPH_EBLER_51411\VERWALTUNG_CHRISTOPH_EBLER_51411\DEBUG\PARSER.OBJ
/ERRORREPORT:PROMPT /OUT:"C:\Users\Christoph\Downloads\verwaltung_Christoph_Ebler_51411 18.09.2015\verwaltung_Christoph_Ebler_51411\Debug\verwaltung_Christoph_Ebler_51411.exe" /NOLOGO kernel32.lib user32.lib gdi32.lib winspool.lib comdlg32.lib advapi32.lib shell32.lib ole32.lib oleaut32.lib uuid.lib odbc32.lib odbccp32.lib /MANIFEST /ManifestFile:"Debug\verwaltung_Christoph_Ebler_51411.exe.intermediate.manifest" /MANIFESTUAC:"level='asInvoker' uiAccess='false'" /DEBUG /PDB:"C:\Users\Christoph\Downloads\verwaltung_Christoph_Ebler_51411 18.09.2015\verwaltung_Christoph_Ebler_51411\Debug\verwaltung_Christoph_Ebler_51411.pdb" /TLBID:1 /DYNAMICBASE /NXCOMPAT /IMPLIB:"C:\Users\Christoph\Downloads\verwaltung_Christoph_Ebler_51411 18.09.2015\verwaltung_Christoph_Ebler_51411\Debug\verwaltung_Christoph_Ebler_51411.lib" /MACHINE:X86 Debug\error_Messages.obj
Debug\fileIO.obj
Debug\hauptprogramm.obj
Debug\keyfunc.obj
Debug\menuefunc.obj
Debug\parser.obj
