^C:\INFO 1\VERWALTUNG_CHRISTOPH_EBLER_51411\VERWALTUNG_CHRISTOPH_EBLER_51411\DEBUG\ERROR_MESSAGES.OBJ|C:\INFO 1\VERWALTUNG_CHRISTOPH_EBLER_51411\VERWALTUNG_CHRISTOPH_EBLER_51411\DEBUG\FILEIO.OBJ|C:\INFO 1\VERWALTUNG_CHRISTOPH_EBLER_51411\VERWALTUNG_CHRISTOPH_EBLER_51411\DEBUG\HAUBTPROGRAMM.OBJ|C:\INFO 1\VERWALTUNG_CHRISTOPH_EBLER_51411\VERWALTUNG_CHRISTOPH_EBLER_51411\DEBUG\KEYFUNC.OBJ|C:\INFO 1\VERWALTUNG_CHRISTOPH_EBLER_51411\VERWALTUNG_CHRISTOPH_EBLER_51411\DEBUG\MENUEFUNC.OBJ|C:\INFO 1\VERWALTUNG_CHRISTOPH_EBLER_51411\VERWALTUNG_CHRISTOPH_EBLER_51411\DEBUG\PARSER.OBJ|C:\INFO 1\VERWALTUNG_CHRISTOPH_EBLER_51411\VERWALTUNG_CHRISTOPH_EBLER_51411\DEBUG\SUCHFUNC.OBJ
C:\INFO 1\VERWALTUNG_CHRISTOPH_EBLER_51411\DEBUG\VERWALTUNG_CHRISTOPH_EBLER_51411.ILK
C:\INFO 1\VERWALTUNG_CHRISTOPH_EBLER_51411\DEBUG\VERWALTUNG_CHRISTOPH_EBLER_51411.EXE
C:\INFO 1\VERWALTUNG_CHRISTOPH_EBLER_51411\VERWALTUNG_CHRISTOPH_EBLER_51411\DEBUG\VERWALTUNG_CHRISTOPH_EBLER_51411.EXE.INTERMEDIATE.MANIFEST
C:\INFO 1\VERWALTUNG_CHRISTOPH_EBLER_51411\DEBUG\VERWALTUNG_CHRISTOPH_EBLER_51411.PDB
^E:\INFO 1\VERWALTUNG_CHRISTOPH_EBLER_51411 14.09.2015\VERWALTUNG_CHRISTOPH_EBLER_51411\VERWALTUNG_CHRISTOPH_EBLER_51411\DEBUG\ERROR_MESSAGES.OBJ|E:\INFO 1\VERWALTUNG_CHRISTOPH_EBLER_51411 14.09.2015\VERWALTUNG_CHRISTOPH_EBLER_51411\VERWALTUNG_CHRISTOPH_EBLER_51411\DEBUG\FILEIO.OBJ|E:\INFO 1\VERWALTUNG_CHRISTOPH_EBLER_51411 14.09.2015\VERWALTUNG_CHRISTOPH_EBLER_51411\VERWALTUNG_CHRISTOPH_EBLER_51411\DEBUG\HAUBTPROGRAMM.OBJ|E:\INFO 1\VERWALTUNG_CHRISTOPH_EBLER_51411 14.09.2015\VERWALTUNG_CHRISTOPH_EBLER_51411\VERWALTUNG_CHRISTOPH_EBLER_51411\DEBUG\KEYFUNC.OBJ|E:\INFO 1\VERWALTUNG_CHRISTOPH_EBLER_51411 14.09.2015\VERWALTUNG_CHRISTOPH_EBLER_51411\VERWALTUNG_CHRISTOPH_EBLER_51411\DEBUG\MENUEFUNC.OBJ|E:\INFO 1\VERWALTUNG_CHRISTOPH_EBLER_51411 14.09.2015\VERWALTUNG_CHRISTOPH_EBLER_51411\VERWALTUNG_CHRISTOPH_EBLER_51411\DEBUG\PARSER.OBJ|E:\INFO 1\VERWALTUNG_CHRISTOPH_EBLER_51411 14.09.2015\VERWALTUNG_CHRISTOPH_EBLER_51411\VERWALTUNG_CHRISTOPH_EBLER_51411\DEBUG\SUCHFUNC.OBJ
E:\INFO 1\VERWALTUNG_CHRISTOPH_EBLER_51411 14.09.2015\VERWALTUNG_CHRISTOPH_EBLER_51411\DEBUG\VERWALTUNG_CHRISTOPH_EBLER_51411.ILK
E:\INFO 1\VERWALTUNG_CHRISTOPH_EBLER_51411 14.09.2015\VERWALTUNG_CHRISTOPH_EBLER_51411\DEBUG\VERWALTUNG_CHRISTOPH_EBLER_51411.EXE
E:\INFO 1\VERWALTUNG_CHRISTOPH_EBLER_51411 14.09.2015\VERWALTUNG_CHRISTOPH_EBLER_51411\VERWALTUNG_CHRISTOPH_EBLER_51411\DEBUG\VERWALTUNG_CHRISTOPH_EBLER_51411.EXE.INTERMEDIATE.MANIFEST
E:\INFO 1\VERWALTUNG_CHRISTOPH_EBLER_51411 14.09.2015\VERWALTUNG_CHRISTOPH_EBLER_51411\DEBUG\VERWALTUNG_CHRISTOPH_EBLER_51411.PDB
^E:\INFO 1\VERWALTUNG_CHRISTOPH_EBLER_51411\VERWALTUNG_CHRISTOPH_EBLER_51411\VERWALTUNG_CHRISTOPH_EBLER_51411\DEBUG\ERROR_MESSAGES.OBJ|E:\INFO 1\VERWALTUNG_CHRISTOPH_EBLER_51411\VERWALTUNG_CHRISTOPH_EBLER_51411\VERWALTUNG_CHRISTOPH_EBLER_51411\DEBUG\FILEIO.OBJ|E:\INFO 1\VERWALTUNG_CHRISTOPH_EBLER_51411\VERWALTUNG_CHRISTOPH_EBLER_51411\VERWALTUNG_CHRISTOPH_EBLER_51411\DEBUG\HAUBTPROGRAMM.OBJ|E:\INFO 1\VERWALTUNG_CHRISTOPH_EBLER_51411\VERWALTUNG_CHRISTOPH_EBLER_51411\VERWALTUNG_CHRISTOPH_EBLER_51411\DEBUG\KEYFUNC.OBJ|E:\INFO 1\VERWALTUNG_CHRISTOPH_EBLER_51411\VERWALTUNG_CHRISTOPH_EBLER_51411\VERWALTUNG_CHRISTOPH_EBLER_51411\DEBUG\MENUEFUNC.OBJ|E:\INFO 1\VERWALTUNG_CHRISTOPH_EBLER_51411\VERWALTUNG_CHRISTOPH_EBLER_51411\VERWALTUNG_CHRISTOPH_EBLER_51411\DEBUG\PARSER.OBJ|E:\INFO 1\VERWALTUNG_CHRISTOPH_EBLER_51411\VERWALTUNG_CHRISTOPH_EBLER_51411\VERWALTUNG_CHRISTOPH_EBLER_51411\DEBUG\SUCHFUNC.OBJ
E:\INFO 1\VERWALTUNG_CHRISTOPH_EBLER_51411\VERWALTUNG_CHRISTOPH_EBLER_51411\DEBUG\VERWALTUNG_CHRISTOPH_EBLER_51411.ILK
E:\INFO 1\VERWALTUNG_CHRISTOPH_EBLER_51411\VERWALTUNG_CHRISTOPH_EBLER_51411\DEBUG\VERWALTUNG_CHRISTOPH_EBLER_51411.EXE
E:\INFO 1\VERWALTUNG_CHRISTOPH_EBLER_51411\VERWALTUNG_CHRISTOPH_EBLER_51411\VERWALTUNG_CHRISTOPH_EBLER_51411\DEBUG\VERWALTUNG_CHRISTOPH_EBLER_51411.EXE.INTERMEDIATE.MANIFEST
E:\INFO 1\VERWALTUNG_CHRISTOPH_EBLER_51411\VERWALTUNG_CHRISTOPH_EBLER_51411\DEBUG\VERWALTUNG_CHRISTOPH_EBLER_51411.PDB
^E:\INFO 1\VERWALTUNG_CHRISTOPH_EBLER_51411\VERWALTUNG_CHRISTOPH_EBLER_51411\DEBUG\ERROR_MESSAGES.OBJ|E:\INFO 1\VERWALTUNG_CHRISTOPH_EBLER_51411\VERWALTUNG_CHRISTOPH_EBLER_51411\DEBUG\FILEIO.OBJ|E:\INFO 1\VERWALTUNG_CHRISTOPH_EBLER_51411\VERWALTUNG_CHRISTOPH_EBLER_51411\DEBUG\HAUPTPROGRAMM.OBJ|E:\INFO 1\VERWALTUNG_CHRISTOPH_EBLER_51411\VERWALTUNG_CHRISTOPH_EBLER_51411\DEBUG\KEYFUNC.OBJ|E:\INFO 1\VERWALTUNG_CHRISTOPH_EBLER_51411\VERWALTUNG_CHRISTOPH_EBLER_51411\DEBUG\MENUEFUNC.OBJ|E:\INFO 1\VERWALTUNG_CHRISTOPH_EBLER_51411\VERWALTUNG_CHRISTOPH_EBLER_51411\DEBUG\PARSER.OBJ
E:\INFO 1\VERWALTUNG_CHRISTOPH_EBLER_51411\DEBUG\VERWALTUNG_CHRISTOPH_EBLER_51411.ILK
E:\INFO 1\VERWALTUNG_CHRISTOPH_EBLER_51411\DEBUG\VERWALTUNG_CHRISTOPH_EBLER_51411.EXE
E:\INFO 1\VERWALTUNG_CHRISTOPH_EBLER_51411\VERWALTUNG_CHRISTOPH_EBLER_51411\DEBUG\VERWALTUNG_CHRISTOPH_EBLER_51411.EXE.INTERMEDIATE.MANIFEST
E:\INFO 1\VERWALTUNG_CHRISTOPH_EBLER_51411\DEBUG\VERWALTUNG_CHRISTOPH_EBLER_51411.PDB
^C:\USERS\CHRISTOPH\DOWNLOADS\VERWALTUNG_CHRISTOPH_EBLER_51411 18.09.2015\VERWALTUNG_CHRISTOPH_EBLER_51411\VERWALTUNG_CHRISTOPH_EBLER_51411\DEBUG\ERROR_MESSAGES.OBJ|C:\USERS\CHRISTOPH\DOWNLOADS\VERWALTUNG_CHRISTOPH_EBLER_51411 18.09.2015\VERWALTUNG_CHRISTOPH_EBLER_51411\VERWALTUNG_CHRISTOPH_EBLER_51411\DEBUG\FILEIO.OBJ|C:\USERS\CHRISTOPH\DOWNLOADS\VERWALTUNG_CHRISTOPH_EBLER_51411 18.09.2015\VERWALTUNG_CHRISTOPH_EBLER_51411\VERWALTUNG_CHRISTOPH_EBLER_51411\DEBUG\HAUPTPROGRAMM.OBJ|C:\USERS\CHRISTOPH\DOWNLOADS\VERWALTUNG_CHRISTOPH_EBLER_51411 18.09.2015\VERWALTUNG_CHRISTOPH_EBLER_51411\VERWALTUNG_CHRISTOPH_EBLER_51411\DEBUG\KEYFUNC.OBJ|C:\USERS\CHRISTOPH\DOWNLOADS\VERWALTUNG_CHRISTOPH_EBLER_51411 18.09.2015\VERWALTUNG_CHRISTOPH_EBLER_51411\VERWALTUNG_CHRISTOPH_EBLER_51411\DEBUG\MENUEFUNC.OBJ|C:\USERS\CHRISTOPH\DOWNLOADS\VERWALTUNG_CHRISTOPH_EBLER_51411 18.09.2015\VERWALTUNG_CHRISTOPH_EBLER_51411\VERWALTUNG_CHRISTOPH_EBLER_51411\DEBUG\PARSER.OBJ
C:\USERS\CHRISTOPH\DOWNLOADS\VERWALTUNG_CHRISTOPH_EBLER_51411 18.09.2015\VERWALTUNG_CHRISTOPH_EBLER_51411\DEBUG\VERWALTUNG_CHRISTOPH_EBLER_51411.ILK
C:\USERS\CHRISTOPH\DOWNLOADS\VERWALTUNG_CHRISTOPH_EBLER_51411 18.09.2015\VERWALTUNG_CHRISTOPH_EBLER_51411\DEBUG\VERWALTUNG_CHRISTOPH_EBLER_51411.EXE
C:\USERS\CHRISTOPH\DOWNLOADS\VERWALTUNG_CHRISTOPH_EBLER_51411 18.09.2015\VERWALTUNG_CHRISTOPH_EBLER_51411\VERWALTUNG_CHRISTOPH_EBLER_51411\DEBUG\VERWALTUNG_CHRISTOPH_EBLER_51411.EXE.INTERMEDIATE.MANIFEST
C:\USERS\CHRISTOPH\DOWNLOADS\VERWALTUNG_CHRISTOPH_EBLER_51411 18.09.2015\VERWALTUNG_CHRISTOPH_EBLER_51411\DEBUG\VERWALTUNG_CHRISTOPH_EBLER_51411.PDB
